Customer Life-Time Value
…
Obervation: There are six groups with more than 100 observations; top 3 groups cover ~80% and top 4 cover ~90% of the ids

4.2.2 Mean Shift

## # A tibble: 79 x 2
##    ms.groups     n
##        <dbl> <int>
##  1         1  2367
##  2         2   588
##  3         5   174
##  4         3    93
##  5         8    73
##  6        10    67
##  7        14    44
##  8        18    41
##  9        20    34
## 10        16    29
## # ... with 69 more rows
…
